<?xml version="1.0" encoding="UTF-8" standalone="no"?>
<svg
   xmlns:dc="http://purl.org/dc/elements/1.1/"
   xmlns:cc="http://creativecommons.org/ns#"
   xmlns:rdf="http://www.w3.org/1999/02/22-rdf-syntax-ns#"
   xmlns:svg="http://www.w3.org/2000/svg"
   xmlns="http://www.w3.org/2000/svg"
   xmlns:xlink="http://www.w3.org/1999/xlink"
   xmlns:sodipodi="http://sodipodi.sourceforge.net/DTD/sodipodi-0.dtd"
   xmlns:inkscape="http://www.inkscape.org/namespaces/inkscape"
   version="1.1"
   viewBox="0 0 128 128"
   id="svg1029"
   sodipodi:docname="Icon.svg"
   inkscape:version="0.92.5 (2060ec1f9f, 2020-04-08)"
   width="128"
   height="128"
   inkscape:export-filename="/home/frode/.local/share/supertuxkart/addons/karts/TootsIcon.png"
   inkscape:export-xdpi="96.000008"
   inkscape:export-ydpi="96.000008">
  <metadata
     id="metadata1035">
    <rdf:RDF>
      <cc:Work
         rdf:about="">
        <dc:format>image/svg+xml</dc:format>
        <dc:type
           rdf:resource="http://purl.org/dc/dcmitype/StillImage" />
        <dc:title></dc:title>
      </cc:Work>
    </rdf:RDF>
  </metadata>
  <defs
     id="defs1033">
    <linearGradient
       id="linearGradient1095"
       inkscape:collect="always">
      <stop
         style="stop-color:#473110;stop-opacity:0.24705882"
         offset="0"
         id="stop1089" />
      <stop
         id="stop1091"
         offset="0.47312164"
         style="stop-color:#96774a;stop-opacity:0.31901839" />
      <stop
         style="stop-color:#000000;stop-opacity:0.32515338"
         offset="1"
         id="stop1093" />
    </linearGradient>
    <linearGradient
       inkscape:collect="always"
       id="linearGradient1065">
      <stop
         id="stop1063"
         offset="0"
         style="stop-color:#5d4522;stop-opacity:0;" />
      <stop
         style="stop-color:#5d4522;stop-opacity:0.02352941;"
         offset="0.47312164"
         id="stop1083" />
      <stop
         id="stop1061"
         offset="1"
         style="stop-color:#5d4522;stop-opacity:1;" />
    </linearGradient>
    <radialGradient
       inkscape:collect="always"
       xlink:href="#linearGradient1065"
       id="radialGradient1067"
       cx="104.34495"
       cy="282.01834"
       fx="104.34495"
       fy="282.01834"
       r="96.712494"
       gradientTransform="matrix(0.16971129,-0.07015676,0.00797012,0.01927825,16.163909,48.235344)"
       gradientUnits="userSpaceOnUse" />
    <linearGradient
       inkscape:collect="always"
       xlink:href="#linearGradient1095"
       id="linearGradient1087"
       x1="83.764313"
       y1="75.555321"
       x2="273.19086"
       y2="75.555321"
       gradientUnits="userSpaceOnUse"
       gradientTransform="matrix(0.22569258,0,0,0.22568256,1.0405156,15.295868)" />
  </defs>
  <sodipodi:namedview
     pagecolor="#ffffff"
     bordercolor="#666666"
     borderopacity="1"
     objecttolerance="10"
     gridtolerance="10"
     guidetolerance="10"
     inkscape:pageopacity="0"
     inkscape:pageshadow="2"
     inkscape:window-width="1920"
     inkscape:window-height="1061"
     id="namedview1031"
     showgrid="false"
     inkscape:snap-global="false"
     inkscape:zoom="1"
     inkscape:cx="13.783347"
     inkscape:cy="52.9202"
     inkscape:window-x="0"
     inkscape:window-y="0"
     inkscape:window-maximized="1"
     inkscape:current-layer="svg1029"
     inkscape:pagecheckerboard="true" />
  <path
     class="st2"
     d="M 94.302786,58.165849 C 99.731748,79.138248 103.30618,92.156274 96.87317,105.403 90.622387,118.2745 63.824866,121.9315 53.316782,119.90668 41.444384,117.61896 34.367379,104.34152 32.801554,94.771563 32.3635,92.09427 30.725184,88.294472 30.725184,88.294472 c 0,0 -1.286448,9.049871 -8.012085,12.096578 -6.725641,3.06929 -12.661356,0.18056 -12.164832,-8.237404 0,0 -5.7551607,-9.61408 -8.4860411,-18.03204 -2.73088021,-8.41796 4.4687132,-16.677941 17.6717291,-13.270135 0.451386,-16.02346 14.354048,-29.496709 33.650764,-31.076487 19.274147,-1.602346 23.991122,8.733913 34.282704,9.185279 9.930474,0.451363 15.461087,-2.70819 20.652007,-7.89889 5.19094,-5.190697 -1.42369,-14.573602 6.85259,-20.102921 0,0 0.36189,-4.2667074 3.85732,-3.2540262 3.49544,1.0126812 2.69255,2.8784182 2.86844,4.1825542 0,0 5.18536,0.511395 4.55836,3.681272 -0.62699,3.169872 -4.80215,0.881946 -4.80215,0.881946 0,0 3.141,15.513907 -1.14716,22.284382 -4.28816,6.770476 -9.18683,15.842916 -26.204044,19.431269 -3.633651,0.315955 -6.657935,-0.880161 -6.657935,-0.880161"
     stroke-miterlimit="10"
     id="path955"
     style="fill:#826130;fill-opacity:1;stroke:#3f311c;stroke-width:3;stroke-linecap:round;stroke-linejoin:round;stroke-miterlimit:10;stroke-dasharray:none;stroke-opacity:1"
     inkscape:connector-curvature="0"
     sodipodi:nodetypes="cssscccscccscscscscc" />
  <path
     class="st4"
     d="m 10.074358,74.437563 c 1.647556,2.053712 4.649267,8.621074 4.468713,13.766637 -0.203124,5.16813 5.371483,7.402388 8.305486,2.933872 2.934006,-4.468515 3.7465,-13.179863 1.715263,-17.422693 -2.031232,-4.265403 -3.137126,-5.867746 -3.137126,-5.867746 0,0 -0.605893,2.156141 -3.449619,2.562371 -2.843727,0.406228 -4.059004,-1.012118 -4.404482,-2.336689 0,0 -0.09485,2.574772 -2.329841,3.032848 -2.9294742,0.600415 -3.4027508,-1.565911 -3.4027508,-1.565911 0,0 0.6093699,2.866167 2.2343568,4.897311 z"
     id="path971"
     style="opacity:1;vector-effect:none;fill:#574020;fill-opacity:1;stroke:#3f311c;stroke-width:2;stroke-linecap:round;stroke-linejoin:round;stroke-miterlimit:10;stroke-dasharray:none;stroke-dashoffset:0;stroke-opacity:1"
     inkscape:connector-curvature="0"
     sodipodi:nodetypes="ccsccscscc" />
  <path
     d="m 75.705715,64.552666 c 0.293399,-1.918301 0.451385,-3.317533 -1.760402,-2.843599 -2.211788,0.473931 -15.75334,4.062286 -18.168252,4.581354 -2.437482,0.519071 -1.963525,2.730759 0.406247,4.062286 2.36977,1.331527 8.959995,5.235838 11.668304,4.874745 2.708311,-0.361093 5.123223,-0.857596 6.229118,-4.333104 1.105891,-3.452947 1.624985,-6.341682 1.624985,-6.341682 z"
     stroke-miterlimit="10"
     id="path975"
     inkscape:connector-curvature="0"
     style="fill:#2e2314;stroke:#2b2011;stroke-width:3;stroke-linecap:round;stroke-linejoin:round;stroke-miterlimit:10;stroke-dasharray:none" />
  <g
     transform="matrix(0.22569258,0,0,0.22568256,-36.012113,-19.920317)"
     id="g979"
     style="stroke-width:13.29271221;stroke-miterlimit:10;stroke-dasharray:none">
    <path
       d="m 458.6,419.7 c -11.4,0 -36.3,-14.2 -46.9,-20.2 l -2.2,-1.3 c -5.1,-2.9 -8.4,-7.1 -7.9,-10.2 0.3,-2 2.3,-3.4 5.5,-4.1 5.5,-1.2 24,-5.9 41.8,-10.5 l 3.8,-1 c 15.9,4.2 28.4,14.9 33.4,28.7 l -0.2,0.7 c -4.5,14 -13.6,16.2 -25.9,17.8 -0.5,0.1 -0.9,0.1 -1.4,0.1 z"
       id="path977"
       inkscape:connector-curvature="0"
       style="fill:#ad4949;stroke-width:13.29271221;stroke-miterlimit:10;stroke-dasharray:none" />
  </g>
  <g
     transform="matrix(0.22569258,0,0,0.22568256,-36.012113,-19.920317)"
     id="g985"
     style="stroke-width:13.29271221;stroke-miterlimit:10;stroke-dasharray:none">
    <path
       class="st33"
       d="m 404,397 c -3.6,-2.6 -5.6,-6.3 -5,-9.5 0.5,-2.8 2.7,-4.7 6.3,-5.4 5.8,-1.2 25.1,-6.2 43.7,-11 8.9,-2.3 17.5,-4.5 24.3,-6.2 l 3.4,15 z"
       id="path981"
       inkscape:connector-curvature="0"
       style="fill:#ffffff;stroke-width:13.29271221;stroke-miterlimit:10;stroke-dasharray:none" />
    <path
       class="st42"
       d="m 471.9,367.4 2.5,11.1 -70,16.4 c -2.5,-2.1 -3.9,-4.7 -3.5,-6.9 0.5,-2.6 3.2,-3.5 4.8,-3.9 5.8,-1.2 25.1,-6.2 43.8,-11 8.2,-2.1 16,-4.1 22.4,-5.7 m 3,-4.9 c -20.4,5.1 -61.2,15.8 -70,17.7 -10.3,2.2 -10.6,13 -1.3,19 l 75.6,-17.8 z"
       id="path983"
       inkscape:connector-curvature="0"
       style="fill:#7d7d65;stroke-width:13.29271221;stroke-miterlimit:10;stroke-dasharray:none" />
  </g>
  <path
     class="st2"
     d="m 55.348244,19.055086 c 0.970477,2.324531 0.654508,5.16813 0.609372,6.093428"
     stroke-miterlimit="10"
     id="path989"
     style="opacity:1;vector-effect:none;fill:none;fill-opacity:1;stroke:#3f311c;stroke-width:3;stroke-linecap:round;stroke-linejoin:round;stroke-miterlimit:10;stroke-dasharray:none;stroke-dashoffset:0;stroke-opacity:1"
     inkscape:connector-curvature="0" />
  <g
     transform="matrix(0.22569258,0,0,0.22568256,-36.012113,-19.920317)"
     id="g993"
     style="stroke-width:13.29271221;stroke-miterlimit:10;stroke-dasharray:none">
    <path
       d="m 358.6,376.9 c 2.2,5.7 6.2,9.9 8.9,8.3 2.7,-1.6 2.9,-5.7 0.4,-12.4 -2.4,-6.6 -13.6,-29.8 -16.6,-34.3 -3,-4.5 -6.4,-5.8 -9.1,-4.2 -2.7,1.6 -1.9,5.5 -0.1,9.2 1.9,3.8 16.5,33.4 16.5,33.4 z"
       id="path991"
       inkscape:connector-curvature="0"
       style="stroke-width:13.29271221;stroke-miterlimit:10;stroke-dasharray:none" />
  </g>
  <path
     style="fill:#ffffff;stroke-width:3;stroke-miterlimit:10;stroke-dasharray:none"
     inkscape:connector-curvature="0"
     id="path995"
     d="m 51.398624,86.285898 c -0.970477,0 -1.986094,-0.112841 -2.979141,-0.361092 -4.784683,-1.17355 -7.425286,-4.852176 -8.23778,-7.673208 -0.519092,-1.80546 -0.361108,-3.36267 0.451386,-4.175127 0.722216,-0.744752 1.51214,-1.128413 2.302064,-1.128413 1.692695,0 3.249973,1.624915 4.017328,2.59535 1.715264,2.143984 3.34025,3.22726 4.829821,3.22726 1.196171,0 2.234357,-0.677047 3.091989,-2.031143 2.256926,-3.475511 2.866295,-7.695775 1.850679,-12.502814 -0.338539,-1.602346 0.06771,-2.527645 0.473954,-3.024147 0.406247,-0.519069 1.015617,-0.812456 1.647556,-0.812456 0.361108,0 0.677078,0.09027 0.947909,0.270818 4.107605,2.663055 4.55899,11.735494 3.06942,16.790783 -1.26388,4.242833 -5.394053,8.824189 -11.465185,8.824189 z"
     class="st33" />
  <path
     style="fill:#7d7d65;stroke-width:2;stroke-miterlimit:10;stroke-dasharray:none"
     inkscape:connector-curvature="0"
     id="path997"
     d="m 58.82391,60.851472 c 0.270832,0 0.496524,0.06771 0.699648,0.203115 1.715263,1.105845 2.934003,3.610921 3.430527,7.041296 0.451386,3.069283 0.225693,6.612499 -0.564232,9.252985 -0.654508,2.234257 -2.053802,4.333105 -3.904481,5.867747 -2.053803,1.715187 -4.513851,2.617917 -7.109316,2.617917 -0.947909,0 -1.895818,-0.112841 -2.866297,-0.361092 -4.604128,-1.128412 -7.131884,-4.671628 -7.89924,-7.357252 -0.473954,-1.624914 -0.338538,-3.046714 0.33854,-3.723762 0.654508,-0.654479 1.309016,-0.993002 1.986094,-0.993002 1.557279,0 3.091989,1.692618 3.678789,2.414802 1.805541,2.256826 3.543374,3.385239 5.16836,3.385239 1.354156,0 2.527757,-0.744752 3.475667,-2.234258 2.324633,-3.588352 2.956572,-7.898889 1.895817,-12.841337 -0.248262,-1.105844 -0.112846,-2.053712 0.383677,-2.640486 0.338539,-0.406229 0.812493,-0.631912 1.286447,-0.631912 m 0,-0.90273 c -1.512139,0 -3.182265,1.444368 -2.550325,4.378242 0.812493,3.746331 0.812493,8.124572 -1.782972,12.141722 -0.857632,1.331528 -1.805541,1.828029 -2.730879,1.828029 -1.85068,0 -3.633651,-1.986007 -4.468714,-3.046715 -0.857632,-1.083276 -2.505188,-2.753327 -4.378436,-2.753327 -0.857632,0 -1.737833,0.338524 -2.640603,1.263823 -2.482619,2.550212 0.451384,10.74249 8.012086,12.593087 1.060756,0.270818 2.098941,0.383659 3.091989,0.383659 6.025992,0 10.517274,-4.468514 11.893999,-9.140143 1.602417,-5.416381 1.038186,-14.533957 -3.249973,-17.309853 -0.338539,-0.225682 -0.767356,-0.338524 -1.196172,-0.338524 z"
     class="st42" />
  <path
     d="m 46.884774,79.718533 c 1.467002,0.383661 4.378437,0.451366 6.725637,-1.489503"
     stroke-miterlimit="10"
     id="path1001"
     inkscape:connector-curvature="0"
     style="fill:none;stroke:#7d7d65;stroke-width:1;stroke-linecap:round;stroke-linejoin:round;stroke-miterlimit:10;stroke-dasharray:none" />
  <path
     d="m 40.836212,71.300575 -3.859343,1.466937 C 35.848405,73.19631 34.584527,72.6321 34.17828,71.503689 c -0.428815,-1.128412 0.135415,-2.392235 1.263877,-2.798465 l 3.859345,-1.466934 c 1.128462,-0.428798 2.392341,0.135408 2.798589,1.263823 0.428813,1.105841 -0.135417,2.369664 -1.263879,2.798462 z"
     id="path1005"
     style="fill:#a35e2e;fill-opacity:1;stroke-width:3;stroke-miterlimit:10;stroke-dasharray:none"
     inkscape:connector-curvature="0" />
  <g
     stroke-miterlimit="10"
     id="g1015"
     style="fill:none;stroke:#a77a39;stroke-width:8.86180839;stroke-linecap:round;stroke-linejoin:round;stroke-miterlimit:10;stroke-dasharray:none;stroke-opacity:1"
     transform="matrix(0.22569258,0,0,0.22568256,1.0405158,15.295868)">
    <path
       class="st34"
       d="m 495.46035,21.976301 c -0.49394,-9.294947 3.05859,-21.83635757 10.10707,-25.8828206"
       id="path1007"
       style="stroke:#a77a39;stroke-width:8.86180839;stroke-miterlimit:10;stroke-dasharray:none;stroke-opacity:1"
       inkscape:connector-curvature="0"
       sodipodi:nodetypes="cc" />
    <path
       class="st34"
       d="m 474.327,95.7571 c 9.10202,-4.905053 25.14747,-21.998989 26.40404,-38.043431"
       id="path1009"
       style="stroke:#a77a39;stroke-width:8.86180839;stroke-miterlimit:10;stroke-dasharray:none;stroke-opacity:1"
       inkscape:connector-curvature="0"
       sodipodi:nodetypes="cc" />
    <path
       class="st34"
       d="m 384.227,121.257 c 15.7,1.4 33.6,-0.1 52.7,-6.6"
       id="path1011"
       style="stroke:#a77a39;stroke-width:8.86180839;stroke-miterlimit:10;stroke-dasharray:none;stroke-opacity:1"
       inkscape:connector-curvature="0" />
    <path
       class="st34"
       d="m 274.627,78.9571 c 19.9,3.5 36.4,12.2 56.1,23.6"
       id="path1013"
       style="stroke:#a77a39;stroke-width:8.86180839;stroke-miterlimit:10;stroke-dasharray:none;stroke-opacity:1"
       inkscape:connector-curvature="0" />
  </g>
  <path
     d="m 70.966173,72.722374 -1.467004,0.586774 c -1.105893,0.428798 -2.369773,-0.112838 -2.798587,-1.218684 l -0.157987,-0.40623 c -0.428814,-1.105845 0.112848,-2.369664 1.218741,-2.798462 l 1.467004,-0.586776 c 1.105891,-0.428798 2.36977,0.112841 2.798587,1.218685 l 0.157985,0.40623 c 0.451384,1.105846 -0.112846,2.369665 -1.218739,2.798463 z"
     id="path1025"
     inkscape:connector-curvature="0"
     style="fill:#b9655a;stroke-width:3;stroke-miterlimit:10;stroke-dasharray:none" />
  <path
     class="st2"
     d="M 30.725184,88.271905 C 31.131432,85.112346 30.8606,83.284318 30.8606,83.284318"
     stroke-miterlimit="10"
     id="path1027"
     style="fill:#fbc16c;stroke:#3f311c;stroke-width:3;stroke-linecap:round;stroke-linejoin:round;stroke-miterlimit:10;stroke-dasharray:none;stroke-opacity:1"
     inkscape:connector-curvature="0" />
  <path
     style="opacity:1;vector-effect:none;fill:url(#radialGradient1067);fill-opacity:1;stroke:none;stroke-width:3;stroke-linecap:round;stroke-linejoin:round;stroke-miterlimit:10;stroke-dasharray:none;stroke-dashoffset:0;stroke-opacity:1"
     id="path1071"
     stroke-miterlimit="10"
     d="M 30.070674,48.70975 C 25.398839,49.477069 21.74262,48.64204 20.207909,42.526048 18.6732,36.41005 24.044685,29.233345 31.763369,26.434883 c 7.718688,-2.798466 15.347097,-0.519071 15.347097,-0.519071 0,0 2.14408,-5.077857 2.888865,-8.011731 0.744786,-2.933874 3.00171,-3.182124 5.326343,1.173551 0,0 6.499947,-0.925301 7.289873,6.048291 0.812492,6.973591 -4.671839,10.47167 -4.671839,10.47167 -5.102444,5.660553 -18.582019,8.741438 -27.873034,13.112157 z"
     class="st2"
     inkscape:connector-curvature="0"
     sodipodi:nodetypes="csscscccc" />
  <path
     class="st2"
     d="M 30.070674,48.70975 C 25.398839,49.477069 21.74262,48.64204 20.207909,42.526048 18.6732,36.41005 24.044685,29.233345 31.763369,26.434883 c 7.718688,-2.798466 15.347097,-0.519071 15.347097,-0.519071 0,0 2.14408,-5.077857 2.888865,-8.011731 0.744786,-2.933874 3.00171,-3.182124 5.326343,1.173551 0,0 6.499947,-0.925301 7.289873,6.048291 0.812492,6.973591 -4.671839,10.47167 -4.671839,10.47167"
     stroke-miterlimit="10"
     id="path987"
     style="opacity:1;vector-effect:none;fill:none;fill-opacity:1;stroke:#3f311c;stroke-width:3;stroke-linecap:round;stroke-linejoin:round;stroke-miterlimit:10;stroke-dasharray:none;stroke-dashoffset:0;stroke-opacity:1"
     inkscape:connector-curvature="0" />
  <path
     sodipodi:nodetypes="csscscccc"
     inkscape:connector-curvature="0"
     class="st2"
     d="M 30.070674,48.70975 C 25.398839,49.477069 21.74262,48.64204 20.207909,42.526048 18.6732,36.41005 24.044685,29.233345 31.763369,26.434883 c 7.718688,-2.798466 15.347097,-0.519071 15.347097,-0.519071 0,0 2.14408,-5.077857 2.888865,-8.011731 0.744786,-2.933874 3.00171,-3.182124 5.326343,1.173551 0,0 6.499947,-0.925301 7.289873,6.048291 0.812492,6.973591 -4.671839,10.47167 -4.671839,10.47167 -5.102444,5.660553 -18.582019,8.741438 -27.873034,13.112157 z"
     stroke-miterlimit="10"
     id="path1085"
     style="opacity:1;vector-effect:none;fill:url(#linearGradient1087);fill-opacity:1;stroke:none;stroke-width:3;stroke-linecap:round;stroke-linejoin:round;stroke-miterlimit:10;stroke-dasharray:none;stroke-dashoffset:0;stroke-opacity:1" />
</svg>
