<?xml version="1.0" encoding="UTF-8" standalone="no"?>
<!-- Created with Inkscape (http://www.inkscape.org/) -->

<svg
   xmlns:dc="http://purl.org/dc/elements/1.1/"
   xmlns:cc="http://creativecommons.org/ns#"
   xmlns:rdf="http://www.w3.org/1999/02/22-rdf-syntax-ns#"
   xmlns:svg="http://www.w3.org/2000/svg"
   xmlns="http://www.w3.org/2000/svg"
   xmlns:xlink="http://www.w3.org/1999/xlink"
   xmlns:sodipodi="http://sodipodi.sourceforge.net/DTD/sodipodi-0.dtd"
   xmlns:inkscape="http://www.inkscape.org/namespaces/inkscape"
   width="128"
   height="128"
   viewBox="0 0 33.866668 33.866666"
   version="1.1"
   id="svg307"
   inkscape:version="0.92.5 (2060ec1f9f, 2020-04-08)"
   sodipodi:docname="mapicon.svg"
   inkscape:export-filename="../sepia_mapicon.png"
   inkscape:export-xdpi="96.000008"
   inkscape:export-ydpi="96.000008">
  <defs
     id="defs301">
    <linearGradient
       inkscape:collect="always"
       id="linearGradient970">
      <stop
         style="stop-color:#fd9c50;stop-opacity:1;"
         offset="0"
         id="stop966" />
      <stop
         id="stop974"
         offset="0.80641574"
         style="stop-color:#fd9a4d;stop-opacity:0.98431373;" />
      <stop
         style="stop-color:#fd9646;stop-opacity:0.86173636"
         offset="1"
         id="stop968" />
    </linearGradient>
    <radialGradient
       inkscape:collect="always"
       xlink:href="#linearGradient970"
       id="radialGradient972"
       cx="98.94886"
       cy="141.21715"
       fx="98.94886"
       fy="141.21715"
       r="14.516479"
       gradientTransform="matrix(1.0436717,-0.17563278,0.10527513,0.62558184,-26.508155,83.11336)"
       gradientUnits="userSpaceOnUse" />
    <radialGradient
       inkscape:collect="always"
       xlink:href="#linearGradient970"
       id="radialGradient972-3"
       cx="98.94886"
       cy="141.21715"
       fx="98.94886"
       fy="141.21715"
       r="14.516479"
       gradientTransform="matrix(6.0681268,-1.0211659,0.6120917,3.6372641,-650.69448,-355.01751)"
       gradientUnits="userSpaceOnUse" />
    <radialGradient
       inkscape:collect="always"
       xlink:href="#linearGradient970"
       id="radialGradient1006"
       gradientUnits="userSpaceOnUse"
       gradientTransform="matrix(0.91898527,-0.17032161,0.01609517,0.0868429,22.031853,153.94492)"
       cx="77.01593"
       cy="135.59738"
       fx="77.01593"
       fy="135.59738"
       r="14.516479" />
  </defs>
  <sodipodi:namedview
     id="base"
     pagecolor="#ffffff"
     bordercolor="#666666"
     borderopacity="1.0"
     inkscape:pageopacity="0.0"
     inkscape:pageshadow="2"
     inkscape:zoom="2"
     inkscape:cx="-21.355038"
     inkscape:cy="58.626009"
     inkscape:document-units="px"
     inkscape:current-layer="layer1"
     showgrid="false"
     fit-margin-top="0"
     fit-margin-left="0"
     fit-margin-right="0"
     fit-margin-bottom="0"
     inkscape:window-width="1920"
     inkscape:window-height="1061"
     inkscape:window-x="0"
     inkscape:window-y="0"
     inkscape:window-maximized="1"
     inkscape:snap-global="false"
     units="px"
     inkscape:pagecheckerboard="true"
     showguides="false" />
  <metadata
     id="metadata304">
    <rdf:RDF>
      <cc:Work
         rdf:about="">
        <dc:format>image/svg+xml</dc:format>
        <dc:type
           rdf:resource="http://purl.org/dc/dcmitype/StillImage" />
        <dc:title></dc:title>
      </cc:Work>
    </rdf:RDF>
  </metadata>
  <g
     inkscape:label="Calque 1"
     inkscape:groupmode="layer"
     id="layer1"
     transform="translate(-77.3749,-131.47974)">
    <g
       id="g1130"
       transform="matrix(0.94315629,0,0,0.94315629,5.3173906,8.4715235)">
      <path
         inkscape:connector-curvature="0"
         id="path957"
         d="m 91.003906,130.42188 c -4.487099,0.61445 -4.605654,6.16475 -6.807203,9.13798 -2.452003,5.42698 -6.284548,10.35019 -7.796312,16.12569 0.906696,3.73056 5.632495,2.90078 8.228515,2.4082 3.373113,6.38146 13.198974,9.32966 18.494144,3.58008 1.97728,-2.0162 3.25068,-4.7462 3.39843,-7.57617 2.65915,0.0803 6.82755,-1.6797 5.54883,-4.98047 -3.39833,-4.72921 -8.66555,-7.68905 -12.546506,-11.94971 -2.636245,-2.45323 -5.249676,-5.19565 -8.519898,-6.7456 z"
         style="color:#000000;clip-rule:nonzero;display:inline;overflow:visible;visibility:visible;opacity:1;isolation:auto;mix-blend-mode:normal;color-interpolation:sRGB;color-interpolation-filters:linearRGB;solid-color:#000000;solid-opacity:1;vector-effect:none;fill:#553b28;fill-opacity:1;fill-rule:nonzero;stroke:none;stroke-width:0.13001001;stroke-linecap:butt;stroke-linejoin:miter;stroke-miterlimit:4;stroke-dasharray:none;stroke-dashoffset:0;stroke-opacity:1;marker:none;paint-order:markers stroke fill;color-rendering:auto;image-rendering:auto;shape-rendering:auto;text-rendering:auto;enable-background:accumulate" />
      <path
         sodipodi:nodetypes="sssss"
         inkscape:connector-curvature="0"
         id="path865-2"
         d="m 103.3183,148.10005 c 2.55086,7.02978 -0.23269,12.32782 -5.333727,14.129 -4.524602,1.59765 -11.001722,-2.2792 -12.324734,-7.82963 -1.041715,-4.37028 1.140562,-8.05803 6.303638,-9.65618 5.029471,-1.5568 10.226493,0.24725 11.354823,3.35681 z"
         style="color:#000000;clip-rule:nonzero;display:inline;overflow:visible;visibility:visible;opacity:1;isolation:auto;mix-blend-mode:normal;color-interpolation:sRGB;color-interpolation-filters:linearRGB;solid-color:#000000;solid-opacity:1;vector-effect:none;fill:url(#radialGradient972);fill-opacity:1;fill-rule:nonzero;stroke:none;stroke-width:0.13001001;stroke-linecap:butt;stroke-linejoin:miter;stroke-miterlimit:4;stroke-dasharray:none;stroke-dashoffset:0;stroke-opacity:1;marker:none;paint-order:markers stroke fill;color-rendering:auto;image-rendering:auto;shape-rendering:auto;text-rendering:auto;enable-background:accumulate" />
      <path
         sodipodi:nodetypes="csscscc"
         inkscape:connector-curvature="0"
         id="path863-4"
         d="m 89.511595,133.73243 c 0.356376,-0.79558 1.479787,-1.46166 2.09342,-0.74513 0.363307,0.42427 17.380995,15.79651 17.880685,16.19214 0.68562,0.54281 0.88725,1.50018 0.14283,1.98107 -0.77387,0.30683 -28.426693,4.99588 -29.131217,5.18174 -0.70451,0.18589 -2.555108,-0.70049 -1.74247,-1.77044 0.812647,-1.06993 10.374504,-19.53507 10.756752,-20.83938 z"
         style="fill:#fd9c50;fill-opacity:1;fill-rule:evenodd;stroke:none;stroke-width:0.13001001;stroke-linecap:butt;stroke-linejoin:miter;stroke-miterlimit:4;stroke-dasharray:none;stroke-opacity:1" />
      <path
         sodipodi:nodetypes="csccc"
         inkscape:connector-curvature="0"
         id="path867-4-9"
         d="m 87.884593,139.78528 c -0.196964,0.38962 -0.338823,0.68568 -0.473913,0.89082 -0.20858,0.31675 -0.871298,0.20396 -0.619217,-0.2843 0.126089,-0.2628 0.293435,-0.59343 0.506546,-0.93759 0.213119,-0.34415 0.78355,-0.0585 0.586584,0.33107 z"
         style="fill:#ffddc2;fill-opacity:1;fill-rule:evenodd;stroke:none;stroke-width:0.23726828;stroke-linecap:butt;stroke-linejoin:miter;stroke-miterlimit:4;stroke-dasharray:none;stroke-opacity:1" />
      <g
         transform="matrix(0.65463684,-6.3251762e-4,0.04109473,0.6454557,6.0147336,56.029404)"
         id="g1888">
        <path
           style="fill:#4e3b3a;fill-opacity:1;fill-rule:evenodd;stroke:#2f2828;stroke-width:0.40701994;stroke-linecap:butt;stroke-linejoin:miter;stroke-miterlimit:4;stroke-dasharray:none;stroke-opacity:1"
           d="m 127.44239,153.53297 c 0.0248,-0.83572 0.78535,-0.95789 0.85565,-0.2729 0.0703,0.68499 0.13616,1.19684 0.12315,1.59221 -0.0201,0.61048 -0.82518,0.87943 -0.90491,0.0152 -0.0582,-0.45454 -0.0497,-0.87357 -0.0739,-1.33447 z"
           id="path867-2"
           inkscape:connector-curvature="0"
           sodipodi:nodetypes="ccsccc" />
        <path
           style="opacity:1;vector-effect:none;fill:#4e3b3a;fill-opacity:1;fill-rule:evenodd;stroke:#2f2828;stroke-width:0.40701994;stroke-linecap:butt;stroke-linejoin:miter;stroke-miterlimit:4;stroke-dasharray:none;stroke-dashoffset:0;stroke-opacity:1"
           d="m 134.84928,151.74452 c 0.11271,-0.82846 0.88195,-0.86978 0.87965,-0.18119 -0.002,0.68859 0.0189,1.40498 -0.0902,1.78521 -0.12806,0.44614 -0.81369,0.54941 -0.80186,-0.31843 -0.01,-0.45813 -0.0121,-0.82468 0.0124,-1.28557 z"
           id="path867-6-6"
           inkscape:connector-curvature="0"
           sodipodi:nodetypes="ccsccc" />
      </g>
      <g
         id="g1928-4"
         transform="matrix(0.66892656,0.03014053,0.12738725,0.63744615,41.777193,60.24247)">
        <path
           style="fill:#d35034;fill-opacity:0.44292238;fill-rule:evenodd;stroke:none;stroke-width:0.26458332px;stroke-linecap:butt;stroke-linejoin:miter;stroke-opacity:1"
           d="m 50.943081,151.14101 c -0.400341,-0.25283 0.512053,-1.42428 0.811945,-1.68151 0.299889,-0.25723 -0.191703,1.92451 -0.811945,1.68151 z"
           id="path1667-9"
           inkscape:connector-curvature="0"
           sodipodi:nodetypes="ccc" />
        <path
           style="fill:#d35034;fill-opacity:0.44292238;fill-rule:evenodd;stroke:none;stroke-width:0.26458332px;stroke-linecap:butt;stroke-linejoin:miter;stroke-opacity:1"
           d="m 51.83521,151.4665 c -0.414013,-0.35768 0.551389,-2.0495 0.867104,-2.42223 0.315715,-0.37274 -0.22382,2.76306 -0.867104,2.42223 z"
           id="path1667-0-0"
           inkscape:connector-curvature="0"
           sodipodi:nodetypes="ccc"
           inkscape:transform-center-x="0.83927927"
           inkscape:transform-center-y="-0.29778724" />
        <path
           style="fill:#d35034;fill-opacity:0.44292238;fill-rule:evenodd;stroke:none;stroke-width:0.26458332px;stroke-linecap:butt;stroke-linejoin:miter;stroke-opacity:1"
           d="m 52.816217,151.19387 c -0.414012,-0.35768 0.551389,-2.0495 0.867105,-2.42224 0.315714,-0.37273 -0.223821,2.76306 -0.867105,2.42224 z"
           id="path1667-7-9"
           inkscape:connector-curvature="0"
           sodipodi:nodetypes="ccc"
           inkscape:transform-center-x="0.84080235"
           inkscape:transform-center-y="0.70487957" />
      </g>
      <g
         id="g1923-1"
         transform="matrix(0.66892656,0.03014053,0.12738725,0.63744615,42.079139,60.219305)">
        <path
           style="opacity:1;vector-effect:none;fill:#d35034;fill-opacity:0.44292238;fill-rule:evenodd;stroke:none;stroke-width:0.26458332px;stroke-linecap:butt;stroke-linejoin:miter;stroke-miterlimit:4;stroke-dasharray:none;stroke-dashoffset:0;stroke-opacity:1"
           d="m 59.278028,149.60677 c -0.414013,-0.35768 0.551388,-2.0495 0.867104,-2.42223 0.315715,-0.37274 -0.223821,2.76305 -0.867104,2.42223 z"
           id="path1667-8-7"
           inkscape:connector-curvature="0"
           sodipodi:nodetypes="ccc" />
        <path
           style="opacity:1;vector-effect:none;fill:#d35034;fill-opacity:0.44292238;fill-rule:evenodd;stroke:none;stroke-width:0.26458332px;stroke-linecap:butt;stroke-linejoin:miter;stroke-miterlimit:4;stroke-dasharray:none;stroke-dashoffset:0;stroke-opacity:1"
           d="m 60.167005,149.36159 c -0.414013,-0.35768 0.551389,-2.0495 0.867104,-2.42223 0.315715,-0.37274 -0.22382,2.76306 -0.867104,2.42223 z"
           id="path1667-6-7"
           inkscape:connector-curvature="0"
           sodipodi:nodetypes="ccc" />
        <path
           style="opacity:1;vector-effect:none;fill:#d35034;fill-opacity:0.44292238;fill-rule:evenodd;stroke:none;stroke-width:0.26458332px;stroke-linecap:butt;stroke-linejoin:miter;stroke-miterlimit:4;stroke-dasharray:none;stroke-dashoffset:0;stroke-opacity:1"
           d="m 61.157788,148.82481 c -0.348754,-0.27043 0.457468,-1.54143 0.721628,-1.82117 0.26416,-0.27974 -0.180335,2.07953 -0.721628,1.82117 z"
           id="path1667-88-1"
           inkscape:connector-curvature="0"
           sodipodi:nodetypes="ccc" />
      </g>
      <path
         sodipodi:nodetypes="cc"
         inkscape:connector-curvature="0"
         id="path1990"
         d="m 100.03854,157.95366 c -0.323813,1.0474 -1.982286,1.35727 -2.564419,0.49038"
         style="fill:none;fill-rule:evenodd;stroke:#762c2c;stroke-width:0.79374999;stroke-linecap:round;stroke-linejoin:miter;stroke-miterlimit:4;stroke-dasharray:none;stroke-opacity:1" />
      <g
         style="opacity:0.7"
         transform="matrix(0.64597495,0.07267366,-0.07267366,0.64597495,70.24857,57.078476)"
         id="g1182-9-2-0">
        <path
           sodipodi:nodetypes="cscc"
           style="fill:#ffffff;fill-opacity:1;fill-rule:evenodd;stroke:none;stroke-width:0.26499999;stroke-linecap:butt;stroke-linejoin:miter;stroke-miterlimit:4;stroke-dasharray:none;stroke-opacity:1"
           d="m 40.726561,129.67568 c 1.767228,-2.45002 18.796875,-6.0648 19.841146,-5.30168 1.044271,0.76312 0.48472,14.54623 -0.8407,14.98803 -1.325419,0.44181 -19.643074,-6.71419 -19.000446,-9.68635 z"
           id="path1176-2-9-5"
           inkscape:connector-curvature="0" />
        <path
           sodipodi:nodetypes="ccccc"
           style="fill:#f1680d;fill-opacity:1;fill-rule:evenodd;stroke:none;stroke-width:0.26458332px;stroke-linecap:butt;stroke-linejoin:miter;stroke-opacity:1"
           d="m 60.726494,124.26543 c 0.404414,5.02307 0.435388,9.41405 -1.014863,15.08667 8.711791,-2.57943 13.404263,-4.12319 13.879861,-4.38156 0.940559,-0.51094 -0.308607,-1.55065 -1.256211,-2.16331 -0.326401,-0.21104 -5.870691,-4.30227 -11.608787,-8.5418 z"
           id="path903-5-2-0-3-9"
           inkscape:connector-curvature="0" />
        <path
           style="fill:#211f20;fill-opacity:1;fill-rule:evenodd;stroke:none;stroke-width:0.26458332px;stroke-linecap:butt;stroke-linejoin:miter;stroke-opacity:1"
           d="m 46.538701,114.1089 c -0.344308,0.0228 -0.660027,0.26659 -0.852044,0.88022 -0.157516,0.91528 -2.552423,7.97512 -4.942209,14.76753 4.418276,-1.57951 11.65357,-4.00063 20.167587,-5.35385 -6.462069,-4.77428 -13.248565,-9.79477 -13.562741,-10.01471 -0.257937,-0.18058 -0.542798,-0.2969 -0.810593,-0.27919 z"
           id="path920-9-6-9-4"
           inkscape:connector-curvature="0" />
        <path
           sodipodi:nodetypes="ccccc"
           style="fill:#737373;fill-opacity:1;fill-rule:evenodd;stroke:none;stroke-width:0.2;stroke-linecap:butt;stroke-linejoin:miter;stroke-miterlimit:4;stroke-dasharray:none;stroke-opacity:1"
           d="m 40.767412,129.66988 c -2.218301,6.30764 -4.442554,12.41547 -4.868738,13.14656 -0.882803,1.51438 1.440916,3.15275 2.310309,2.80983 0.428003,-0.16884 12.908937,-3.7115 21.389603,-6.22235 -6.696977,-3.92647 -14.608653,-7.63903 -18.831174,-9.73404 z"
           id="path863-7-3-8-0-6"
           inkscape:connector-curvature="0" />
      </g>
      <path
         inkscape:connector-curvature="0"
         id="path976"
         d="m 91.313451,132.76424 c 2.544882,2.37381 17.016679,15.44242 17.477379,15.80718 0.68562,0.54282 0.8872,1.50004 0.14277,1.98094 -0.77386,0.30683 -28.42669,4.99608 -29.131213,5.18194 -0.279084,0.0737 -0.737132,-0.0228 -1.139113,-0.23044 0.335759,0.59128 1.352487,0.96555 1.834137,0.83846 0.704524,-0.18586 28.357359,-4.87511 29.131209,-5.18195 0.74443,-0.48089 0.54285,-1.43812 -0.14276,-1.98093 -0.4997,-0.39563 -17.51752,-15.76788 -17.880829,-16.19215 -0.08771,-0.10241 -0.186771,-0.17346 -0.29158,-0.22305 z"
         style="opacity:1;vector-effect:none;fill:url(#radialGradient1006);fill-opacity:1;fill-rule:evenodd;stroke:none;stroke-width:0.13001001;stroke-linecap:butt;stroke-linejoin:miter;stroke-miterlimit:4;stroke-dasharray:none;stroke-dashoffset:0;stroke-opacity:1;marker:none;paint-order:markers stroke fill" />
    </g>
  </g>
</svg>
